{
    "id": "779f9137-c62f-4a38-a479-8a65bd59acd8",
    "type": "image",
    "size": 131170,
    "Url": "https://storage.yandexcloud.net/mg-node-files/files/18528/779f9137-c62f-4a38-a479-8a65bd59acd8"
}
