{
    "success": true,
    "integrationModule": {
        "code": "TestBotCode",
        "integrationCode": "TestBotIntegrationCode",
        "active": false,
        "freeze": false,
        "name": "TestBotName",
        "native": false,
        "baseUrl": "https://test.ngrok.io/",
        "actions": {
            "activity": "/activity"
        },
        "availableCountries": [],
        "integrations": {
            "mgBot": {
                "isActive": true,
                "logo": "",
                "token": "token",
                "name": "TestBotNameMgBot"
            }
        }
    }
}