{
    "success": true,
    "pagination": {
        "limit": 20,
        "totalCount": 7,
        "currentPage": 2,
        "totalPageCount": 2
    },
    "dataKeywordPlaceholder": [
        {
            "id": 21,
            "name": "test",
            "code": "test"
        },
        {
            "id": 22,
            "name": "test",
            "code": "test"
        },
        {
            "id": 23,
            "name": "test",
            "code": "test"
        },
        {
            "id": 24,
            "name": "test",
            "code": "test"
        },
        {
            "id": 25,
            "name": "test",
            "code": "test"
        },
        {
            "id": 26,
            "name": "test",
            "code": "test"
        },
        {
            "id": 27,
            "name": "test",
            "code": "test"
        }
    ]
}
