{
    "type": "dialog_closed",
    "meta": {
        "timestamp": 1665547526
    },
    "data": {
        "dialog": {
            "id": 20,
            "begin_message_id": 245,
            "ending_message_id": 254,
            "chat": {
                "id": 1,
                "channel": {
                    "id": 3,
                    "name": "@rcrmtestbot_bot",
                    "is_active": true,
                    "type": "telegram",
                    "avatar": "",
                    "transport_id": 2,
                    "settings": {
                        "status": {
                            "delivered": "send"
                        },
                        "text": {
                            "creating": "both",
                            "editing": "both",
                            "quoting": "both",
                            "deleting": "receive",
                            "max_chars_count": 4096
                        },
                        "product": {
                            "creating": "receive",
                            "editing": "receive"
                        },
                        "order": {
                            "creating": "receive",
                            "editing": "receive"
                        },
                        "image": {
                            "creating": "both",
                            "editing": "both",
                            "quoting": "both",
                            "deleting": "receive",
                            "max_items_count": 10
                        },
                        "file": {
                            "creating": "both",
                            "editing": "both",
                            "quoting": "both",
                            "deleting": "receive",
                            "max_items_count": 1
                        },
                        "audio": {
                            "creating": "both",
                            "quoting": "both",
                            "deleting": "receive",
                            "max_items_count": 1
                        },
                        "suggestions": {
                            "text": "both",
                            "email": "both",
                            "phone": "both"
                        }
                    }
                },
                "members": [
                    {
                        "is_author": false,
                        "state": "kicked",
                        "user": {
                            "id": 1,
                            "external_id": "13",
                            "type": "user",
                            "avatar": "",
                            "name": "Bogdan",
                            "first_name": "Bogdan"
                        }
                    },
                    {
                        "is_author": false,
                        "state": "active",
                        "user": {
                            "id": 8,
                            "external_id": "15",
                            "type": "user",
                            "avatar": "",
                            "name": "Bogdan manager",
                            "first_name": "Bogdan manager"
                        }
                    }
                ],
                "customer": {
                    "id": 5,
                    "external_id": "",
                    "type": "customer",
                    "avatar": "https://mg-transport-content.s3.eu-central-1.amazonaws.com/telegram/a78cd8989ad9f7f6ac6a33cde689bae2e42cf5322b9302cf8dd43525c324ee03.jpg",
                    "name": "Bogdan Shipilov",
                    "username": "theBodyan",
                    "first_name": "Bogdan",
                    "last_name": "Shipilov"
                },
                "last_message": {
                    "id": 254,
                    "time": "2022-10-12T04:05:26Z",
                    "type": "system",
                    "scope": "private",
                    "chat_id": 1,
                    "is_read": false,
                    "is_edit": false,
                    "status": "received",
                    "from": {
                        "id": 1,
                        "external_id": "13",
                        "type": "user",
                        "avatar": "",
                        "name": "Bogdan",
                        "first_name": "Bogdan"
                    },
                    "action": "dialog_closed",
                    "dialog": {
                        "id": 20
                    }
                },
                "last_activity": "2022-10-12T04:05:26Z",
                "last_dialog": {
                    "id": 20,
                    "created_at": "2022-10-11T12:26:15Z",
                    "assigned_at": "2022-10-12T04:00:53Z",
                    "responsible": {
                        "id": 8,
                        "external_id": "15",
                        "type": "user",
                        "avatar": "",
                        "name": "Bogdan manager",
                        "first_name": "Bogdan manager"
                    }
                },
                "created_at": "2022-10-02T06:46:41.828935+03:00"
            },
            "responsible": {
                "type": "user",
                "id": 8,
                "assigned_at": "2022-10-12T07:00:53.531703+03:00"
            },
            "created_at": "2022-10-11T15:26:15.012942+03:00",
            "closed_at": "2022-10-12T04:05:26Z"
        }
    }
}
