{
    "type": "message_new",
    "meta": {
        "timestamp": 1665547119
    },
    "data": {
        "message": {
            "id": 248,
            "time": "2022-10-12T03:58:39Z",
            "type": "text",
            "scope": "public",
            "chat_id": 1,
            "is_read": false,
            "is_edit": false,
            "status": "sending",
            "from": {
                "id": 1,
                "external_id": "16",
                "type": "bot",
                "avatar": "",
                "name": "mybot"
            },
            "content": "gologoglo",
            "quote": null,
            "chat": {
                "id": 1,
                "channel": {
                    "id": 3,
                    "name": "@rcrmtestbot_bot",
                    "is_active": true,
                    "type": "telegram",
                    "avatar": "",
                    "transport_id": 2,
                    "settings": {
                        "status": {
                            "delivered": "send"
                        },
                        "text": {
                            "creating": "both",
                            "editing": "both",
                            "quoting": "both",
                            "deleting": "receive",
                            "max_chars_count": 4096
                        },
                        "product": {
                            "creating": "receive",
                            "editing": "receive"
                        },
                        "order": {
                            "creating": "receive",
                            "editing": "receive"
                        },
                        "image": {
                            "creating": "both",
                            "editing": "both",
                            "quoting": "both",
                            "deleting": "receive",
                            "max_items_count": 10
                        },
                        "file": {
                            "creating": "both",
                            "editing": "both",
                            "quoting": "both",
                            "deleting": "receive",
                            "max_items_count": 1
                        },
                        "audio": {
                            "creating": "both",
                            "quoting": "both",
                            "deleting": "receive",
                            "max_items_count": 1
                        },
                        "suggestions": {
                            "text": "both",
                            "email": "both",
                            "phone": "both"
                        }
                    }
                },
                "members": [
                    {
                        "is_author": false,
                        "state": "active",
                        "user": {
                            "id": 1,
                            "external_id": "13",
                            "type": "user",
                            "avatar": "",
                            "name": "Bogdan",
                            "first_name": "Bogdan"
                        }
                    },
                    {
                        "is_author": false,
                        "state": "kicked",
                        "user": {
                            "id": 8,
                            "external_id": "15",
                            "type": "user",
                            "avatar": "",
                            "name": "Bogdan manager",
                            "first_name": "Bogdan manager"
                        }
                    }
                ],
                "customer": {
                    "id": 5,
                    "external_id": "",
                    "type": "customer",
                    "avatar": "https://mg-transport-content.s3.eu-central-1.amazonaws.com/telegram/a78cd8989ad9f7f6ac6a33cde689bae2e42cf5322b9302cf8dd43525c324ee03.jpg",
                    "name": "Bogdan Shipilov",
                    "username": "theBodyan",
                    "first_name": "Bogdan",
                    "last_name": "Shipilov"
                },
                "last_message": {
                    "id": 248,
                    "time": "2022-10-12T06:58:39+03:00",
                    "type": "text",
                    "scope": "public",
                    "chat_id": 1,
                    "is_read": false,
                    "is_edit": false,
                    "status": "sending",
                    "from": {
                        "id": 1,
                        "external_id": "13",
                        "type": "user",
                        "avatar": "",
                        "name": "Bogdan",
                        "first_name": "Bogdan"
                    },
                    "content": "gologoglo",
                    "quote": null
                },
                "last_activity": "2022-10-12T06:58:39+03:00",
                "last_dialog": {
                    "id": 20,
                    "created_at": "2022-10-11T12:26:15Z",
                    "assigned_at": "2022-10-11T12:26:18Z",
                    "responsible": {
                        "id": 1,
                        "external_id": "13",
                        "type": "user",
                        "avatar": "",
                        "name": "Bogdan",
                        "first_name": "Bogdan"
                    }
                },
                "created_at": "2022-10-02T06:46:41.828935+03:00"
            },
            "created_at": "2022-10-12T03:58:39.889497536Z",
            "edited_at": null
        }
    }
}
