{
    "type": "message_new",
    "meta": {
        "timestamp": 1674715701
    },
    "data": {
        "message": {
            "id": 916857,
            "time": "2023-01-26T06:48:21Z",
            "type": "order",
            "scope": "public",
            "chat_id": 32503,
            "is_read": false,
            "is_edit": false,
            "status": "sending",
            "from": {
                "id": 15627,
                "external_id": "18",
                "type": "user",
                "avatar": null,
                "name": "Мария Чистая",
                "first_name": "Мария",
                "last_name": "Чистая"
            },
            "order": {
                "number": "orderNumber"
            },
            "chat": {
                "id": 32503,
                "channel": {
                    "id": 60,
                    "avatar": null,
                    "transport_id": 59,
                    "type": "whatsapp",
                    "settings": {
                        "sending_policy": "[...]",
                        "status": "[...]",
                        "text": "[...]",
                        "product": "[...]",
                        "order": "[...]",
                        "image": "[...]",
                        "file": "[...]",
                        "audio": "[...]"
                    },
                    "name": "Выпускные Ленты (+7 958 581-54-26)",
                    "is_active": true
                },
                "members": [
                    {
                        "is_author": false,
                        "state": "active",
                        "user": "[...]"
                    }
                ],
                "customer": {
                    "id": 32501,
                    "external_id": "79092182926",
                    "type": "customer",
                    "avatar": "https://mg-transport-content.s3.eu-central-1.amazonaws.com/whatsapp/1132e5dd8b263194dabd17d84074a7689380c79302d1a15615ead8678707fa2c.jpg",
                    "name": "31414",
                    "username": "test",
                    "first_name": "31414",
                    "phone": "79092182926"
                },
                "last_message": {
                    "id": 916857,
                    "time": "2023-01-26T06:48:21Z",
                    "type": "order",
                    "scope": "public",
                    "chat_id": 32503,
                    "is_read": false,
                    "is_edit": false,
                    "status": "sending",
                    "from": {
                        "id": 15627,
                        "external_id": "18",
                        "type": "user",
                        "avatar": null,
                        "name": "Мария Чистая",
                        "first_name": "Мария",
                        "last_name": "Чистая"
                    },
                    "order": {
                        "number": "31414",
                        "items": "[...]",
                        "delivery": "[...]",
                        "cost": "[...]",
                        "payments": "[...]"
                    }
                },
                "last_activity": "2023-01-26T06:48:21Z",
                "last_dialog": {
                    "id": 69106,
                    "created_at": "2023-01-26T06:46:42Z",
                    "assigned_at": "2023-01-26T06:46:42Z",
                    "responsible": {
                        "id": 15627,
                        "external_id": "18",
                        "type": "user",
                        "avatar": null,
                        "name": "Мария Чистая",
                        "first_name": "Мария",
                        "last_name": "Чистая"
                    }
                },
                "created_at": "2023-01-26T09:46:29.932644+03:00"
            },
            "created_at": "2023-01-26T06:48:21.132332802Z",
            "edited_at": null
        }
    }
}