{
    "type": "message_new",
    "meta": {
        "timestamp": 1665547370
    },
    "data": {
        "message": {
            "id": 251,
            "time": "2022-10-12T04:02:50Z",
            "type": "image",
            "scope": "public",
            "actions": [
                "edit",
                "delete",
                "quote"
            ],
            "chat_id": 1,
            "is_read": false,
            "is_edit": false,
            "status": "received",
            "from": {
                "id": 5,
                "external_id": "",
                "type": "customer",
                "avatar": "https://mg-transport-content.s3.eu-central-1.amazonaws.com/telegram/a78cd8989ad9f7f6ac6a33cde689bae2e42cf5322b9302cf8dd43525c324ee03.jpg",
                "name": "Bogdan Shipilov",
                "username": "theBodyan",
                "first_name": "Bogdan",
                "last_name": "Shipilov"
            },
            "items": [
                {
                    "id": "779f9137-c62f-4a38-a479-8a65bd59acd8",
                    "size": 131170,
                    "type": "image/jpeg",
                    "preview_url": "https://storage.yandexcloud.net/mg-node-files/files/18528/779f9137-c62f-4a38-a479-8a65bd59acd8",
                    "height": 853,
                    "width": 1280
                }
            ],
            "note": "wppr",
            "chat": {
                "id": 1,
                "channel": {
                    "id": 3,
                    "name": "@rcrmtestbot_bot",
                    "is_active": true,
                    "type": "telegram",
                    "avatar": "",
                    "transport_id": 2,
                    "settings": {
                        "status": {
                            "delivered": "send"
                        },
                        "text": {
                            "creating": "both",
                            "editing": "both",
                            "quoting": "both",
                            "deleting": "receive",
                            "max_chars_count": 4096
                        },
                        "product": {
                            "creating": "receive",
                            "editing": "receive"
                        },
                        "order": {
                            "creating": "receive",
                            "editing": "receive"
                        },
                        "image": {
                            "creating": "both",
                            "editing": "both",
                            "quoting": "both",
                            "deleting": "receive",
                            "max_items_count": 10
                        },
                        "file": {
                            "creating": "both",
                            "editing": "both",
                            "quoting": "both",
                            "deleting": "receive",
                            "max_items_count": 1
                        },
                        "audio": {
                            "creating": "both",
                            "quoting": "both",
                            "deleting": "receive",
                            "max_items_count": 1
                        },
                        "suggestions": {
                            "text": "both",
                            "email": "both",
                            "phone": "both"
                        }
                    }
                },
                "members": [
                    {
                        "is_author": false,
                        "state": "kicked",
                        "user": {
                            "id": 1,
                            "external_id": "13",
                            "type": "user",
                            "avatar": "",
                            "name": "Bogdan",
                            "first_name": "Bogdan"
                        }
                    },
                    {
                        "is_author": false,
                        "state": "active",
                        "user": {
                            "id": 8,
                            "external_id": "15",
                            "type": "user",
                            "avatar": "",
                            "name": "Bogdan manager",
                            "first_name": "Bogdan manager"
                        }
                    }
                ],
                "customer": {
                    "id": 5,
                    "external_id": "",
                    "type": "customer",
                    "avatar": "https://mg-transport-content.s3.eu-central-1.amazonaws.com/telegram/a78cd8989ad9f7f6ac6a33cde689bae2e42cf5322b9302cf8dd43525c324ee03.jpg",
                    "name": "Bogdan Shipilov",
                    "username": "theBodyan",
                    "first_name": "Bogdan",
                    "last_name": "Shipilov"
                },
                "last_message": {
                    "id": 251,
                    "time": "2022-10-12T07:02:50+03:00",
                    "type": "image",
                    "scope": "public",
                    "actions": [
                        "edit",
                        "delete",
                        "quote"
                    ],
                    "chat_id": 1,
                    "is_read": false,
                    "is_edit": false,
                    "status": "received",
                    "from": {
                        "id": 5,
                        "external_id": "",
                        "type": "customer",
                        "avatar": "https://mg-transport-content.s3.eu-central-1.amazonaws.com/telegram/a78cd8989ad9f7f6ac6a33cde689bae2e42cf5322b9302cf8dd43525c324ee03.jpg",
                        "name": "Bogdan Shipilov",
                        "username": "theBodyan",
                        "first_name": "Bogdan",
                        "last_name": "Shipilov"
                    },
                    "note": "wppr"
                },
                "last_activity": "2022-10-12T07:02:50+03:00",
                "last_dialog": {
                    "id": 20,
                    "created_at": "2022-10-11T12:26:15Z",
                    "assigned_at": "2022-10-12T04:00:53Z",
                    "responsible": {
                        "id": 8,
                        "external_id": "15",
                        "type": "user",
                        "avatar": "",
                        "name": "Bogdan manager",
                        "first_name": "Bogdan manager"
                    }
                },
                "created_at": "2022-10-02T06:46:41.828935+03:00"
            },
            "created_at": "2022-10-12T04:02:50.779414881Z",
            "edited_at": null
        }
    }
}
